Sentiment Analysis in R
…
# Compute tf, idf, and tf-idf
day_tf_idf <- day_words %>%
  bind_tf_idf(word, created_at_date, n)

View(day_tf_idf) 
# tf = term frequency
# idf = inverse document frequency
# tf_idf = term frequency * inverse document frequency 

# View words with high tf-idf
day_tf_idf %>%
  arrange(-tf_idf)

## # A tibble: 5,175 x 6
##    created_at_date word            n     tf   idf tf_idf
##    <date>          <chr>       <int>  <dbl> <dbl>  <dbl>
##  1 2021-09-18      edgar          20 0.0314  2.01 0.0634
##  2 2021-09-18      marathon       11 0.0173  2.71 0.0468
##  3 2021-09-28      nov             2 0.0130  2.71 0.0352
##  4 2021-09-28      kindness        3 0.0195  1.61 0.0314
##  5 2021-09-24      gogold          6 0.0102  2.71 0.0276
##  6 2021-09-25      edgar           7 0.0130  2.01 0.0262
##  7 2021-09-28      fund            2 0.0130  2.01 0.0262
##  8 2021-09-28      jersey          2 0.0130  2.01 0.0262
##  9 2021-09-28      phd             2 0.0130  2.01 0.0262
## 10 2021-09-26      oregonducks     6 0.0225  1.10 0.0247
## # ... with 5,165 more rows
…
There are three general lexicons in the {tidytext} package, and all three use single words.

AFINN assign words with a score between -5 (most negative) and 5 (most positive); negative scores have negative sentiment while positive scores have positive sentiment

bing categorizes words into categories of positive or negative

nrc categorizes words into categories of positive, negative, anger, anticipation, disgust, fear, joy, sadness, surprise, and trust

The function get_sentiments() with the name of the lexicon will retreive the desired lexicon.

# View each lexicon
get_sentiments("afinn")

## # A tibble: 2,477 x 2
##    word       value
##    <chr>      <dbl>
##  1 abandon       -2
##  2 abandoned     -2
##  3 abandons      -2
##  4 abducted      -2
##  5 abduction     -2
##  6 abductions    -2
##  7 abhor         -3
##  8 abhorred      -3
##  9 abhorrent     -3
## 10 abhors        -3
## # ... with 2,467 more rows

get_sentiments("bing")

## # A tibble: 6,786 x 2
##    word        sentiment
##    <chr>       <chr>    
##  1 2-faces     negative 
##  2 abnormal    negative 
##  3 abolish     negative 
##  4 abominable  negative 
##  5 abominably  negative 
##  6 abominate   negative 
##  7 abomination negative 
##  8 abort       negative 
##  9 aborted     negative 
## 10 aborts      negative 
## # ... with 6,776 more rows

get_sentiments("nrc") # note that words can have multiple sentiments in nrc

## # A tibble: 13,901 x 2
##    word        sentiment
##    <chr>       <chr>    
##  1 abacus      trust    
##  2 abandon     fear     
##  3 abandon     negative 
##  4 abandon     sadness  
##  5 abandoned   anger    
##  6 abandoned   fear     
##  7 abandoned   negative 
##  8 abandoned   sadness  
##  9 abandonment anger    
## 10 abandonment fear     
## # ... with 13,891 more rows
…
